﻿Experiment;Sensitivity;Specificity;Accuracy
1_22;0.261;1;0.449
1_1;0.208;0.999;0.415
1_2;0.061;1;0.348
1_3;0.386;1;0.491
1_4;0.043;1;0.355
1_5;0.037;0.999;0.373
1_6;0;1;0.326
1_7;0.208;0.999;0.415
1_8;0.322;1;0.467
1_9;0.073;1;0.373
1_10;0.064;0.018;0.049
1_11;0.198;0.993;0.385
1_12;0.093;1;0.372
1_13;0.208;0.999;0.415
1_14;0.177;1;0.407
1_15;0.208;0.999;0.415
1_16;0.208;0.999;0.415
1_17;0.208;0.999;0.415
1_18;0.186;1;0.411
1_19;0.002;1;0.324
1_20;0;1;0.325
1_21;0.068;0.087;0.074
